%YAML 1.1
%TAG !u! tag:unity3d.com,2011:
--- !u!319 &31900000
AvatarMask:
  m_ObjectHideFlags: 0
  m_PrefabParentObject: {fileID: 0}
  m_PrefabInternal: {fileID: 0}
  m_Name: PlayerUpperBody
  m_Mask: 01000000010000000100000001000000010000000100000001000000010000000100000001000000010000000100000001000000
  m_Elements:
  - m_Path: 
    m_Weight: 1
  - m_Path: Bip001
    m_Weight: 1
  - m_Path: Bip001/Bip001 Footsteps
    m_Weight: 0
  - m_Path: Bip001/Bip001 Pelvis
    m_Weight: 1
  - m_Path: Bip001/Bip001 Pelvis/Bip001 Spine
    m_Weight: 0
  - m_Path: Bip001/Bip001 Pelvis/Bip001 Spine/Bip001 L Thigh
    m_Weight: 0
  - m_Path: Bip001/Bip001 Pelvis/Bip001 Spine/Bip001 L Thigh/Bip001 L Calf
    m_Weight: 0
  - m_Path: Bip001/Bip001 Pelvis/Bip001 Spine/Bip001 L Thigh/Bip001 L Calf/Bip001
      L Foot
    m_Weight: 0
  - m_Path: Bip001/Bip001 Pelvis/Bip001 Spine/Bip001 L Thigh/Bip001 L Calf/Bip001
      L Foot/Bip001 L Toe0
    m_Weight: 0
  - m_Path: Bip001/Bip001 Pelvis/Bip001 Spine/Bip001 R Thigh
    m_Weight: 0
  - m_Path: Bip001/Bip001 Pelvis/Bip001 Spine/Bip001 R Thigh/Bip001 R Calf
    m_Weight: 0
  - m_Path: Bip001/Bip001 Pelvis/Bip001 Spine/Bip001 R Thigh/Bip001 R Calf/Bip001
      R Foot
    m_Weight: 0
  - m_Path: Bip001/Bip001 Pelvis/Bip001 Spine/Bip001 R Thigh/Bip001 R Calf/Bip001
      R Foot/Bip001 R Toe0
    m_Weight: 0
  - m_Path: Bip001/Bip001 Pelvis/Bip001 Spine/Bip001 Spine1
    m_Weight: 1
  - m_Path: Bip001/Bip001 Pelvis/Bip001 Spine/Bip001 Spine1/Bip001 Neck
    m_Weight: 1
  - m_Path: Bip001/Bip001 Pelvis/Bip001 Spine/Bip001 Spine1/Bip001 Neck/Bip001 Head
    m_Weight: 1
  - m_Path: Bip001/Bip001 Pelvis/Bip001 Spine/Bip001 Spine1/Bip001 Neck/Bip001 L Clavicle
    m_Weight: 1
  - m_Path: Bip001/Bip001 Pelvis/Bip001 Spine/Bip001 Spine1/Bip001 Neck/Bip001 L Clavicle/Bip001
      L UpperArm
    m_Weight: 1
  - m_Path: Bip001/Bip001 Pelvis/Bip001 Spine/Bip001 Spine1/Bip001 Neck/Bip001 L Clavicle/Bip001
      L UpperArm/Bip001 L Forearm
    m_Weight: 1
  - m_Path: Bip001/Bip001 Pelvis/Bip001 Spine/Bip001 Spine1/Bip001 Neck/Bip001 L Clavicle/Bip001
      L UpperArm/Bip001 L Forearm/Bip001 L Hand
    m_Weight: 1
  - m_Path: Bip001/Bip001 Pelvis/Bip001 Spine/Bip001 Spine1/Bip001 Neck/Bip001 L Clavicle/Bip001
      L UpperArm/Bip001 L Forearm/Bip001 L Hand/Bip001 L Finger0
    m_Weight: 1
  - m_Path: Bip001/Bip001 Pelvis/Bip001 Spine/Bip001 Spine1/Bip001 Neck/Bip001 L Clavicle/Bip001
      L UpperArm/Bip001 L Forearm/Bip001 L Hand/Bip001 L Finger0/Bip001 L Finger01
    m_Weight: 1
  - m_Path: Bip001/Bip001 Pelvis/Bip001 Spine/Bip001 Spine1/Bip001 Neck/Bip001 L Clavicle/Bip001
      L UpperArm/Bip001 L Forearm/Bip001 L Hand/Bip001 L Finger0/Bip001 L Finger01/Bip001
      L Finger02
    m_Weight: 1
  - m_Path: Bip001/Bip001 Pelvis/Bip001 Spine/Bip001 Spine1/Bip001 Neck/Bip001 L Clavicle/Bip001
      L UpperArm/Bip001 L Forearm/Bip001 L Hand/Bip001 L Finger1
    m_Weight: 1
  - m_Path: Bip001/Bip001 Pelvis/Bip001 Spine/Bip001 Spine1/Bip001 Neck/Bip001 L Clavicle/Bip001
      L UpperArm/Bip001 L Forearm/Bip001 L Hand/Bip001 L Finger1/Bip001 L Finger11
    m_Weight: 1
  - m_Path: Bip001/Bip001 Pelvis/Bip001 Spine/Bip001 Spine1/Bip001 Neck/Bip001 L Clavicle/Bip001
      L UpperArm/Bip001 L Forearm/Bip001 L Hand/Bip001 L Finger1/Bip001 L Finger11/Bip001
      L Finger12
    m_Weight: 1
  - m_Path: Bip001/Bip001 Pelvis/Bip001 Spine/Bip001 Spine1/Bip001 Neck/Bip001 L Clavicle/Bip001
      L UpperArm/Bip001 L Forearm/Bip001 L Hand/Bip001 L Finger2
    m_Weight: 1
  - m_Path: Bip001/Bip001 Pelvis/Bip001 Spine/Bip001 Spine1/Bip001 Neck/Bip001 L Clavicle/Bip001
      L UpperArm/Bip001 L Forearm/Bip001 L Hand/Bip001 L Finger2/Bip001 L Finger21
    m_Weight: 1
  - m_Path: Bip001/Bip001 Pelvis/Bip001 Spine/Bip001 Spine1/Bip001 Neck/Bip001 L Clavicle/Bip001
      L UpperArm/Bip001 L Forearm/Bip001 L Hand/Bip001 L Finger2/Bip001 L Finger21/Bip001
      L Finger22
    m_Weight: 1
  - m_Path: Bip001/Bip001 Pelvis/Bip001 Spine/Bip001 Spine1/Bip001 Neck/Bip001 L Clavicle/Bip001
      L UpperArm/Bip001 L Forearm/Bip001 L Hand/Bip001 L Finger3
    m_Weight: 1
  - m_Path: Bip001/Bip001 Pelvis/Bip001 Spine/Bip001 Spine1/Bip001 Neck/Bip001 L Clavicle/Bip001
      L UpperArm/Bip001 L Forearm/Bip001 L Hand/Bip001 L Finger3/Bip001 L Finger31
    m_Weight: 1
  - m_Path: Bip001/Bip001 Pelvis/Bip001 Spine/Bip001 Spine1/Bip001 Neck/Bip001 L Clavicle/Bip001
      L UpperArm/Bip001 L Forearm/Bip001 L Hand/Bip001 L Finger3/Bip001 L Finger31/Bip001
      L Finger32
    m_Weight: 1
  - m_Path: Bip001/Bip001 Pelvis/Bip001 Spine/Bip001 Spine1/Bip001 Neck/Bip001 L Clavicle/Bip001
      L UpperArm/Bip001 L Forearm/Bip001 L Hand/Bip001 L Finger4
    m_Weight: 1
  - m_Path: Bip001/Bip001 Pelvis/Bip001 Spine/Bip001 Spine1/Bip001 Neck/Bip001 L Clavicle/Bip001
      L UpperArm/Bip001 L Forearm/Bip001 L Hand/Bip001 L Finger4/Bip001 L Finger41
    m_Weight: 1
  - m_Path: Bip001/Bip001 Pelvis/Bip001 Spine/Bip001 Spine1/Bip001 Neck/Bip001 L Clavicle/Bip001
      L UpperArm/Bip001 L Forearm/Bip001 L Hand/Bip001 L Finger4/Bip001 L Finger41/Bip001
      L Finger42
    m_Weight: 1
  - m_Path: Bip001/Bip001 Pelvis/Bip001 Spine/Bip001 Spine1/Bip001 Neck/Bip001 R Clavicle
    m_Weight: 1
  - m_Path: Bip001/Bip001 Pelvis/Bip001 Spine/Bip001 Spine1/Bip001 Neck/Bip001 R Clavicle/Bip001
      R UpperArm
    m_Weight: 1
  - m_Path: Bip001/Bip001 Pelvis/Bip001 Spine/Bip001 Spine1/Bip001 Neck/Bip001 R Clavicle/Bip001
      R UpperArm/Bip001 R Forearm
    m_Weight: 1
  - m_Path: Bip001/Bip001 Pelvis/Bip001 Spine/Bip001 Spine1/Bip001 Neck/Bip001 R Clavicle/Bip001
      R UpperArm/Bip001 R Forearm/Bip001 R Hand
    m_Weight: 1
  - m_Path: Bip001/Bip001 Pelvis/Bip001 Spine/Bip001 Spine1/Bip001 Neck/Bip001 R Clavicle/Bip001
      R UpperArm/Bip001 R Forearm/Bip001 R Hand/Bip001 R Finger0
    m_Weight: 1
  - m_Path: Bip001/Bip001 Pelvis/Bip001 Spine/Bip001 Spine1/Bip001 Neck/Bip001 R Clavicle/Bip001
      R UpperArm/Bip001 R Forearm/Bip001 R Hand/Bip001 R Finger0/Bip001 R Finger01
    m_Weight: 1
  - m_Path: Bip001/Bip001 Pelvis/Bip001 Spine/Bip001 Spine1/Bip001 Neck/Bip001 R Clavicle/Bip001
      R UpperArm/Bip001 R Forearm/Bip001 R Hand/Bip001 R Finger0/Bip001 R Finger01/Bip001
      R Finger02
    m_Weight: 1
  - m_Path: Bip001/Bip001 Pelvis/Bip001 Spine/Bip001 Spine1/Bip001 Neck/Bip001 R Clavicle/Bip001
      R UpperArm/Bip001 R Forearm/Bip001 R Hand/Bip001 R Finger1
    m_Weight: 1
  - m_Path: Bip001/Bip001 Pelvis/Bip001 Spine/Bip001 Spine1/Bip001 Neck/Bip001 R Clavicle/Bip001
      R UpperArm/Bip001 R Forearm/Bip001 R Hand/Bip001 R Finger1/Bip001 R Finger11
    m_Weight: 1
  - m_Path: Bip001/Bip001 Pelvis/Bip001 Spine/Bip001 Spine1/Bip001 Neck/Bip001 R Clavicle/Bip001
      R UpperArm/Bip001 R Forearm/Bip001 R Hand/Bip001 R Finger1/Bip001 R Finger11/Bip001
      R Finger12
    m_Weight: 1
  - m_Path: Bip001/Bip001 Pelvis/Bip001 Spine/Bip001 Spine1/Bip001 Neck/Bip001 R Clavicle/Bip001
      R UpperArm/Bip001 R Forearm/Bip001 R Hand/Bip001 R Finger2
    m_Weight: 1
  - m_Path: Bip001/Bip001 Pelvis/Bip001 Spine/Bip001 Spine1/Bip001 Neck/Bip001 R Clavicle/Bip001
      R UpperArm/Bip001 R Forearm/Bip001 R Hand/Bip001 R Finger2/Bip001 R Finger21
    m_Weight: 1
  - m_Path: Bip001/Bip001 Pelvis/Bip001 Spine/Bip001 Spine1/Bip001 Neck/Bip001 R Clavicle/Bip001
      R UpperArm/Bip001 R Forearm/Bip001 R Hand/Bip001 R Finger2/Bip001 R Finger21/Bip001
      R Finger22
    m_Weight: 1
  - m_Path: Bip001/Bip001 Pelvis/Bip001 Spine/Bip001 Spine1/Bip001 Neck/Bip001 R Clavicle/Bip001
      R UpperArm/Bip001 R Forearm/Bip001 R Hand/Bip001 R Finger3
    m_Weight: 1
  - m_Path: Bip001/Bip001 Pelvis/Bip001 Spine/Bip001 Spine1/Bip001 Neck/Bip001 R Clavicle/Bip001
      R UpperArm/Bip001 R Forearm/Bip001 R Hand/Bip001 R Finger3/Bip001 R Finger31
    m_Weight: 1
  - m_Path: Bip001/Bip001 Pelvis/Bip001 Spine/Bip001 Spine1/Bip001 Neck/Bip001 R Clavicle/Bip001
      R UpperArm/Bip001 R Forearm/Bip001 R Hand/Bip001 R Finger3/Bip001 R Finger31/Bip001
      R Finger32
    m_Weight: 1
  - m_Path: Bip001/Bip001 Pelvis/Bip001 Spine/Bip001 Spine1/Bip001 Neck/Bip001 R Clavicle/Bip001
      R UpperArm/Bip001 R Forearm/Bip001 R Hand/Bip001 R Finger4
    m_Weight: 1
  - m_Path: Bip001/Bip001 Pelvis/Bip001 Spine/Bip001 Spine1/Bip001 Neck/Bip001 R Clavicle/Bip001
      R UpperArm/Bip001 R Forearm/Bip001 R Hand/Bip001 R Finger4/Bip001 R Finger41
    m_Weight: 1
  - m_Path: Bip001/Bip001 Pelvis/Bip001 Spine/Bip001 Spine1/Bip001 Neck/Bip001 R Clavicle/Bip001
      R UpperArm/Bip001 R Forearm/Bip001 R Hand/Bip001 R Finger4/Bip001 R Finger41/Bip001
      R Finger42
    m_Weight: 1
  - m_Path: Bip001/Bip001 Pelvis/Bip001 Spine/Bip001 Spine1/Bip001 Neck/Bip001 R Clavicle/Bip001
      R UpperArm/Bip001 R Forearm/Bip001 R Hand/Bone053
    m_Weight: 1
  - m_Path: Bip001/Bip001 Pelvis/Bip001 Spine/Bip001 Spine1/Bip001 Neck/Bip001 R Clavicle/Bip001
      R UpperArm/Bip001 R Forearm/Bip001 R Hand/Bone053/Bone054
    m_Weight: 1
  - m_Path: Bip001/Bip001 Pelvis/Bip001 Spine/Bip001 Spine1/Bip001 Neck/Bip001 R Clavicle/Bip001
      R UpperArm/Bip001 R Forearm/Bip001 R Hand/Cylinder001
    m_Weight: 1
  - m_Path: Bip001/Bip001 Pelvis/Bip001 Spine/Bone043
    m_Weight: 0
  - m_Path: Bip001/Bip001 Pelvis/Bip001 Spine/Bone043/Bone044
    m_Weight: 0
  - m_Path: Bip001/Bip001 Pelvis/Bip001 Spine/Bone043/Bone044/Bone045
    m_Weight: 0
  - m_Path: Bip001/Bip001 Pelvis/Bip001 Spine/Bone043/Bone044/Bone045/Bone046
    m_Weight: 0
  - m_Path: Bip001/Bip001 Pelvis/Bip001 Spine/Bone043/Bone044/Bone045/Bone046/Bone047
    m_Weight: 0
  - m_Path: Bip001/Bip001 Pelvis/Bip001 Spine/Bone043(mirrored)
    m_Weight: 0
  - m_Path: Bip001/Bip001 Pelvis/Bip001 Spine/Bone043(mirrored)/Bone044(mirrored)
    m_Weight: 0
  - m_Path: Bip001/Bip001 Pelvis/Bip001 Spine/Bone043(mirrored)/Bone044(mirrored)/Bone045(mirrored)
    m_Weight: 0
  - m_Path: Bip001/Bip001 Pelvis/Bip001 Spine/Bone043(mirrored)/Bone044(mirrored)/Bone045(mirrored)/Bone046(mirrored)
    m_Weight: 0
  - m_Path: Bip001/Bip001 Pelvis/Bip001 Spine/Bone043(mirrored)/Bone044(mirrored)/Bone045(mirrored)/Bone046(mirrored)/Bone047(mirrored)
    m_Weight: 0
  - m_Path: Bip001/Bip001 Pelvis/Bip001 Spine/Bone048
    m_Weight: 0
  - m_Path: Bip001/Bip001 Pelvis/Bip001 Spine/Bone048/Bone049
    m_Weight: 0
  - m_Path: Bip001/Bip001 Pelvis/Bip001 Spine/Bone048/Bone049/Bone050
    m_Weight: 0
  - m_Path: Bip001/Bip001 Pelvis/Bip001 Spine/Bone048/Bone049/Bone050/Bone051
    m_Weight: 0
  - m_Path: Bip001/Bip001 Pelvis/Bip001 Spine/Bone048/Bone049/Bone050/Bone051/Bone052
    m_Weight: 0
  - m_Path: Bip001/Bip001 Pelvis/Bip001 Spine/Bone048(mirrored)
    m_Weight: 0
  - m_Path: Bip001/Bip001 Pelvis/Bip001 Spine/Bone048(mirrored)/Bone049(mirrored)
    m_Weight: 0
  - m_Path: Bip001/Bip001 Pelvis/Bip001 Spine/Bone048(mirrored)/Bone049(mirrored)/Bone050(mirrored)
    m_Weight: 0
  - m_Path: Bip001/Bip001 Pelvis/Bip001 Spine/Bone048(mirrored)/Bone049(mirrored)/Bone050(mirrored)/Bone051(mirrored)
    m_Weight: 0
  - m_Path: Bip001/Bip001 Pelvis/Bip001 Spine/Bone048(mirrored)/Bone049(mirrored)/Bone050(mirrored)/Bone051(mirrored)/Bone052(mirrored)
    m_Weight: 0
  - m_Path: Bip001/Bip001 Pelvis/Bone036
    m_Weight: 1
  - m_Path: Bip001/Bip001 Pelvis/Bone036/Bone031
    m_Weight: 1
  - m_Path: Bip001/Bip001 Pelvis/Bone036/Bone031/Bone032
    m_Weight: 1
  - m_Path: Bip001/Bip001 Pelvis/Bone036/Bone031/Bone032/Bone035
    m_Weight: 1
  - m_Path: Bip001/Bip001 Pelvis/Bone036/Bone031/Bone032/Bone035/Bone034
    m_Weight: 1
  - m_Path: Bip001/Bip001 Pelvis/Bone036/Bone031/Bone032/Bone035/Bone034/Bone033
    m_Weight: 1
  - m_Path: Bip001/Bip001 Pelvis/Bone037
    m_Weight: 1
  - m_Path: Bip001/Bip001 Pelvis/Bone037/Bone038
    m_Weight: 1
  - m_Path: Bip001/Bip001 Pelvis/Bone037/Bone038/Bone039
    m_Weight: 1
  - m_Path: Bip001/Bip001 Pelvis/Bone037/Bone038/Bone039/Bone040
    m_Weight: 1
  - m_Path: Bip001/Bip001 Pelvis/Bone037/Bone038/Bone039/Bone040/Bone041
    m_Weight: 1
  - m_Path: Bip001/Bip001 Pelvis/Bone037/Bone038/Bone039/Bone040/Bone041/Bone042
    m_Weight: 1
  - m_Path: Plane007
    m_Weight: 0
