%YAML 1.1
%TAG !u! tag:unity3d.com,2011:
--- !u!221 &22100000
AnimatorOverrideController:
  m_ObjectHideFlags: 0
  m_PrefabParentObject: {fileID: 0}
  m_PrefabInternal: {fileID: 0}
  m_Name: Slime
  m_Controller: {fileID: 9100000, guid: 5019c5550daf3f54fa8a421d12f9be96, type: 2}
  m_Clips:
  - m_OriginalClip: {fileID: 7400004, guid: 59afa1f2c595d6343b15e945602e1f8f, type: 3}
    m_OverrideClip: {fileID: 7400004, guid: e607f74860c67814e93c914b710142d5, type: 3}
  - m_OriginalClip: {fileID: 7400008, guid: 59afa1f2c595d6343b15e945602e1f8f, type: 3}
    m_OverrideClip: {fileID: 7400006, guid: e607f74860c67814e93c914b710142d5, type: 3}
  - m_OriginalClip: {fileID: 7400002, guid: 59afa1f2c595d6343b15e945602e1f8f, type: 3}
    m_OverrideClip: {fileID: 7400002, guid: e607f74860c67814e93c914b710142d5, type: 3}
  - m_OriginalClip: {fileID: 7400000, guid: 59afa1f2c595d6343b15e945602e1f8f, type: 3}
    m_OverrideClip: {fileID: 7400000, guid: e607f74860c67814e93c914b710142d5, type: 3}
